empty.vasp    0.0
empty.vasp    0.0
Pt.vasp    	-5.4101415
Pt.vasp    	-5.4101415
Ni.vasp    	-4.9485515
Ni.vasp    	-4.9485515
# KMC-determined OH adsorbed pattern at high coverages
KMC-gs-Pt178Ni47-10S.vasp	-1213.018
KMC-gs-Pt178Ni47-24S.vasp	-1354.5042
KMC-gs-Pt178Ni47-42S.vasp	-1534.748
KMC-gs-Pt178Ni47-60S.vasp	-1714.9878
KMC-gs-Pt178Ni47-61S.vasp	-1724.3539
KMC-gs-Pt178Ni47-62S.vasp	-1732.7526
KMC-gs-Pt178Ni47-70S.vasp	-1811.0776
KMC-gs-Pt178Ni47-72S.vasp	-1830.1178
KMC-gs-Pt178Ni47-78S.vasp	-1886.5457
KMC-gs-Pt225-10S.vasp	-1212.6691
KMC-gs-Pt225-24S.vasp	-1355.6902
KMC-gs-Pt225-42S.vasp	-1537.973
KMC-gs-Pt225-60S.vasp	-1721.0348
KMC-gs-Pt225-61S.vasp	-1730.6539
KMC-gs-Pt225-62S.vasp	-1740.2944
KMC-gs-Pt225-70S.vasp	-1816.8717
KMC-gs-Pt225-72S.vasp	-1835.9622
KMC-gs-Pt225-76S.vasp	-1875.6177
#9-layer Pt29Ni7(111) slabs, benchmark
9-layer-slab-29.7-cleanslab.vasp			-190.14988
9-layer-slab-29.7-cleanslab-2S-top1-Pt2Ni-Pt2Ni.vasp	-209.09452
9-layer-slab-29.7-cleanslab-2S-top4-Pt3-Pt3.vasp	-209.35557
#prim=3, 0.333ML, 0.667ML on Pt(111)
9-layer-slab-27.0-cleanslab-2S.vasp	-162.19323
#9-layer Pt(111) slabs, benchmark
9-layer-slab-36.0-cleanslab.vasp	-190.468748
9-layer-slab-36.0-cleanslab-2S.vasp	-209.73366
9-layer-slab-36.0-cleanslab-4S.vasp	-228.69262
#multiple-OH: 2*OH, & 3*OH
#(111) steps
111-NP-step-Pt174Ni42-clean.vasp	-1063.2997
111-NP-step-Pt174Ni42-S2-close.vasp	-1083.0649
111-NP-step-Pt174Ni42-S2-sym.vasp	-1082.9926
111-NP-step-Pt176Ni44-clean.vasp	-1084.8281
111-NP-step-Pt176Ni44-S2-middle.vasp	-1104.5605
111-NP-step-Pt177Ni46-clean.vasp	-1100.7967
111-NP-step-Pt177Ni46-S2-close.vasp	-1120.6323
111-NP-step-Pt216-clean.vasp		-1062.4098
111-NP-step-Pt216-S2-close.vasp		-1082.5852
111-NP-step-Pt216-S2-sym.vasp		-1082.44
111-NP-step-Pt220-clean.vasp		-1083.6851
111-NP-step-Pt220-S2-middle.vasp	-1103.7308
111-NP-step-Pt223-clean.vasp		-1099.424
111-NP-step-Pt223-S2-close.vasp		-1119.6918
111-NP-step-Pt223-S2-sym.vasp		-1119.8498
226-Pt178Ni48-Ni-vertex-1-clean.vasp	-1115.5324
226-Pt179Ni47-Pt-vertex-1-clean.vasp	-1116.1277
226-Pt179Ni47-Pt-vertex-2-clean.vasp	-1116.1163	
226-Pt179Ni47-Pt-vertex-3-clean.vasp	-1115.6909	
226-Pt179Ni47-Pt-vertex-4-clean.vasp	-1115.9786	
226-Pt224Ni2-Pt-vertex-1-clean.vasp	-1114.0133	
226-Pt225Ni-Ni-vertex-1-clean.vasp	-1114.1784
226-Pt225Ni-Pt-vertex-1-clean.vasp	-1114.4014	
226-Pt225Ni-Pt-vertex-2-clean.vasp	-1114.8964	
226-Pt226-Pt-vertex-1-clean.vasp	-1114.7342
adatom-Pt178Ni48-Ni-adatom-fcc1-clean.vasp	-1114.6666
adatom-Pt178Ni48-Ni-adatom-fcc5-clean.vasp	-1114.8795
adatom-Pt178Ni48-Ni-adatom-fcc8-clean.vasp	-1115.0529
adatom-Pt179Ni47-Pt-adatom-fcc1-clean.vasp	-1114.7676
adatom-Pt179Ni47-Pt-adatom-fcc3-clean.vasp	-1114.9304
adatom-Pt179Ni47-Pt-adatom-fcc5-clean.vasp	-1115.2625
adatom-Pt179Ni47-Pt-adatom-fcc8-clean.vasp	-1115.4682
adatom-Pt225Ni-Ni-adatom-fcc1-clean.vasp	-1113.8399
adatom-Pt226-Pt-adatom-fcc1-clean.vasp	-1113.9867
adatom-Pt226-Pt-adatom-fcc3-clean.vasp	-1113.9783
adatom-Pt226-Pt-adatom-fcc5-clean.vasp	-1114.1846
adatom-Pt226-Pt-adatom-fcc8-clean.vasp	-1114.2176
groundState.112.35.vasp	-708.25564
groundState.112.35-random.vasp	-696.0722
groundState.118.29.vasp	-708.27696
groundState.124.23.vasp	-706.98537
groundState.128.43.vasp	-814.63326
groundState.178.47-20150609.vasp	-1112.523
groundState.178.47-20150614.vasp	-1111.078
groundState.184.47-20150614.vasp	-1143.3686
groundState.184.47-one-vertex-Ni.vasp	-1141.2862
groundState.184.47-one-vertex-Ni-move-Ni.vasp	-1136.3834
groundState.oxygenCE.random.47.178.225atom.0-clean.vasp	-1095.5085
groundState.oxygenCE.random.47.178.225atom.1-clean.vasp	-1095.9462
groundState.oxygenCE.random.47.178.225atom.2-clean.vasp	-1098.2429
groundState.oxygenCE.random.47.178.225atom.3-clean.vasp	-1095.2455
groundState.oxygenCE.random.47.178.225atom.4-clean.vasp	-1092.2149
gs.176.225.6.41.178.noMo.noEdge.vasp	-1104.7828
gs.176.225.6.41.178.noMo.noFace.vasp	-1104.2726
gs.176.225.6.41.178.noMo.noVertex.vasp	-1105.6246
gs.176.225.6.41.178.noMo.vasp	-1111.0042
gs.198.140.0.30.110.vasp	-678.719
Ni46Pt179-Pt-skin-vertex-1-c-clean.vasp	-1110.8296
Ni47Pt178-one-Ni-surface-edge-1-clean.vasp	-1110.4137
Ni47Pt178-one-Ni-surface-edge-1-move-Ni-clean.vasp	-1104.776
Ni47Pt178-one-Ni-surface-edge-3-clean.vasp	-1110.5809
Ni47Pt178-one-Ni-surface-edge-3-move-Ni-clean.vasp	-1105.0574
Ni47Pt178-one-Ni-surface-face-1-clean.vasp	-1110.5731
Ni47Pt178-one-Ni-surface-face-1-move-Ni-clean.vasp	-1104.5175
Ni47Pt178-one-Ni-surface-face-2-clean.vasp	-1110.6548
Ni47Pt178-one-Ni-surface-face-2-move-Ni-clean.vasp	-1104.8022
Ni47Pt178-one-Ni-surface-face-3-clean.vasp	-1110.7421
Ni47Pt178-one-Ni-surface-face-3-move-Ni-clean.vasp	-1105.2506
Ni47Pt178-one-Ni-surface-vertex-1-clean.vasp	-1110.7179
Ni47Pt178-one-Ni-surface-vertex-1-move-Ni-clean.vasp	-1105.6836
Ni47Pt178-Pt-skin-edge-12-face-123-vertex-1-6OH.vasp	-1169.5445
Ni47Pt178-Pt-skin-edge-1-a-move-Pt-clean.vasp	-1104.6229
Ni47Pt178-Pt-skin-edge-1-c-clean.vasp	-1110.9732
Ni47Pt178-Pt-skin-edge-1-c-move-Pt-clean.vasp	-1104.7712
Ni47Pt178-Pt-skin-edge-2-a-move-Pt-clean.vasp	-1104.9445
Ni47Pt178-Pt-skin-edge-2-b-move-Pt-clean.vasp	-1104.8844
Ni47Pt178-Pt-skin-edge-2-c-move-Pt-clean.vasp	-1104.8475
Ni47Pt178-Pt-skin-face-1-b-clean.vasp	-1110.6856
Ni47Pt178-Pt-skin-face-1-b-move-Pt-clean.vasp	-1103.8223
Ni47Pt178-Pt-skin-face-1-c-clean.vasp	-1111.1442
Ni47Pt178-Pt-skin-face-1-c-move-Pt-clean.vasp	-1104.5171
Ni47Pt178-Pt-skin-face-2-a-move-Pt-clean.vasp	-1104.5452
Ni47Pt178-Pt-skin-face-2-b-move-Pt-clean.vasp	-1104.5744
Ni47Pt178-Pt-skin-face-2-c-clean.vasp	-1111.0319
Ni47Pt178-Pt-skin-face-2-c-move-Pt-clean.vasp	-1104.6847
Ni47Pt178-Pt-skin-face-3-a-move-Pt-clean.vasp	-1105.1113
Ni47Pt178-Pt-skin-face-3-b-move-Pt-clean.vasp	-1104.9602
Ni47Pt178-Pt-skin-face-3-c-clean.vasp	-1111.0708
Ni47Pt178-Pt-skin-face-3-c-move-Pt-clean.vasp	-1105.2498
Ni47Pt178-Pt-skin-vertex-1-a-move-Pt-clean.vasp	-1105.6244
Ni47Pt178-Pt-skin-vertex-1-b-move-Pt-clean.vasp	-1105.6837
Ni47Pt178-Pt-skin-vertex-1-c-move-Pt-clean.vasp	-1105.639
Ni47Pt178-Pt-skin-vertex-2-a-clean.vasp	-1110.8265
Ni47Pt178-Pt-skin-vertex-2-b-clean.vasp	-1110.898
Ni47Pt178-Pt-skin-vertex-2-c-clean.vasp	-1110.4914
Ni47Pt178-Pt-skin-vertex-2OH.vasp	-1131.4387
Ni47Pt178-Pt-skin-vertex-3OH.vasp	-1141.6203
Ni47Pt178-Pt-skin-vertex-4OH.vasp	-1151.8315
Ni47Pt178-Pt-skin-vertex-5OH.vasp	-1162.0986
Ni47Pt178-Pt-skin-vertex-6OH.vasp	-1172.3078
Ni47Pt178-Pt-skin-vertex-6OH-face-3-OH.vasp	-1181.9033
Ni47Pt178-Pt-skin-vertex-6OH-VFE-edge-1.vasp	-1165.8655
Ni47Pt178-Pt-skin-vertex-6OH-VFE-edge-2.vasp	-1166.4981
Ni47Pt178-Pt-skin-vertex-6OH-VFE-face-3.vasp	-1166.4856
Ni47Pt178-Pt-skin-vertex-6OH-VFE-vertex-1.vasp	-1156.7106
Ni47Pt178-Pt-skin-vertex-6OH-VFE-vertex-2.vasp	-1166.9551
Ni47Pt178-Pt-skin-vertex-6OH-VFE-vertex-diagonal.vasp	-1167.0238
Ni47Pt178-surface-6-Ni-vertex-clean.vasp	-1108.0988
Pt147-3-truncated-clean.vasp	-702.90791
Pt147-3-truncated-remove-100-middle-1-clean.vasp	-697.55938
Pt147-3-truncated-remove-vertex-1-clean.vasp	-697.85428
Pt160Ni41-gs-clean.vasp	-991.05503
Pt178Ni47-random-20170605.vasp	-1092.4685
Pt201-2-truncated-clean.vasp	-985.96352
Pt201-2-truncated-remove-100-middle-1-clean.vasp	-980.32104
Pt201-2-truncated-remove-vertex-1-clean.vasp	-980.40531
Pt224Ni-Pt-vertex-1-clean.vasp	-1109.8798
Pt224Ni-Pt-vertex-2-clean.vasp	-1109.22
Pt225-clean.vasp	-1109.7284
Pt225-edge-12-face-123-vertex-1-6OH.vasp	-1169.332
Pt225-remove-edge-2-clean.vasp	-1103.8207	
Pt225-remove-face-2-clean.vasp	-1103.5238
Pt225-remove-face-3-clean.vasp	-1103.8977	
Pt225-vertex-2OH.vasp	-1130.3402
Pt225-vertex-3OH.vasp	-1140.653
Pt225-vertex-4OH.vasp	-1150.9792
Pt225-vertex-5OH.vasp	-1161.2562
Pt225-vertex-6OH.vasp	-1171.5617
Pt231-0-truncated-clean.vasp	-1140.6198
Pt231-0-truncated-remove-edge-1-clean.vasp	-1134.6786
Pt231-0-truncated-remove-edge-3-clean.vasp	-1134.9885
Pt231-0-truncated-remove-face-3-clean.vasp	-1134.7296
Pt231-0-truncated-remove-vertex-1-clean.vasp	-1135.3411
PtNiCu-purePt-LNi-MNi-RPt.vasp	-1103.3638
PtNiCu-purePt-LNi-MPt-RNi.vasp	-1102.0146
PtNiCu-purePt-LNi-MPt-RPt.vasp	-1107.5222
PtNiCu-purePt-pureNi-purePt.vasp	-1106.6622
PtNiCu-purePt-purePt-pureNi.vasp	-1106.5557
PtNi-groundState.178.47.0-20170407.vasp	-1110.3832
PtNi-groundState.186.39.0-20170407.vasp	-1112.9126
PtNiS-Pt178Ni47-gs.150.47.28-20171015-clean.vasp	-1110.0732
PtNiS-Pt178Ni47-gs.150.47.28-20171015.vasp		-1396.1741
PtNiS-Pt178Ni47-gs.150.47.28-20171110-clean.vasp	-1109.2231
PtNiS-Pt178Ni47-gs.150.47.28-20171110.vasp		-1395.8123
PtNiS-Pt178Ni47-gs.150.47.28-20171106-clean.vasp	-1110.8611
PtNiS-Pt178Ni47-gs.162.47.16-20171206.vasp		-1275.5554
PtNiS-Pt178Ni47-gs.162.47.16-20171206-clean.vasp	-1111.1381
PtNiS-Pt178Ni47-gs.164.47.14-20171015-clean.vasp	-1110.9712
PtNiS-Pt178Ni47-gs.164.47.14-20171015.vasp		-1254.2819
PtNiS-Pt178Ni47-gs.164.47.14-20171025-clean.vasp	-1111.4156
PtNiS-Pt178Ni47-gs.164.47.14-20171025.vasp		-1254.2975
PtNiS-Pt178Ni47-gs.164.47.14-20171106-clean.vasp	-1111.5043
PtNiS-Pt178Ni47-gs.164.47.14-20171106.vasp		-1253.612
PtNiS-Pt178Ni47-gs.164.47.14-20171110-clean.vasp	-1110.1209
PtNiS-Pt178Ni47-gs.164.47.14-20171110.vasp		-1254.2755
PtNiS-Pt178Ni47-gs.164.47.14-20171115-clean.vasp	-1111.1163
PtNiS-Pt178Ni47-gs.164.47.14-20171115.vasp		-1255.2312
PtNiS-Pt178Ni47-gs.164.47.14-20171216-clean.vasp	-1111.5033
PtNiS-Pt178Ni47-gs.164.47.14-20171216.vasp		-1255.1497
PtNiS-Pt178Ni47-gs.166.47.12-20171216-clean.vasp	-1111.8557
PtNiS-Pt178Ni47-gs.166.47.12-20171216.vasp		-1234.5984
PtNiS-Pt178Ni47-gs.170.47.8-20171115-clean.vasp		-1110.1156
PtNiS-Pt178Ni47-gs.170.47.8-20171115.vasp		-1190.994
PtNiS-Pt178Ni47-gs.170.47.8-20171206-clean.vasp		-1111.4666
PtNiS-Pt178Ni47-gs.170.47.8-20171206.vasp		-1193.666
PtNiS-Pt178Ni47-gs.170.47.8-20171216-clean.vasp		-1111.6781
PtNiS-Pt178Ni47-gs.170.47.8-20171216.vasp		-1193.6916
PtNiS-Pt178Ni47-gs.172.47.6-20171025-clean.vasp		-1111.4106
PtNiS-Pt178Ni47-gs.172.47.6-20171025.vasp		-1172.9411
PtNiS-Pt178Ni47-gs.172.47.6-20171106-clean.vasp		-1110.7633
PtNiS-Pt178Ni47-gs.172.47.6-20171106.vasp		-1171.6297
PtNiS-Pt178Ni47-gs.172.47.6-20171110-clean.vasp		-1110.7825
PtNiS-Pt178Ni47-gs.172.47.6-20171110.vasp		-1172.5441
PtNiS-Pt178Ni47-gs.172.47.6-20171110-subNi-clean.vasp	-1110.8993
PtNiS-Pt178Ni47-gs.172.47.6-20171110-subNi.vasp		-1172.4814
PtNiS-Pt194Ni31-gs.166.31.28-20171015-clean.vasp	-1111.6985
PtNiS-Pt194Ni31-gs.170.31.24-20171106-clean.vasp	-1111.7936
PtNiS-Pt194Ni31-gs.170.31.24-20171106.vasp		-1359.2689
PtNiS-Pt194Ni31-gs.178.31.16-20171206.vasp		-1277.2257
PtNiS-Pt194Ni31-gs.178.31.16-20171206-clean.vasp	-1112.3659
PtNiS-Pt194Ni31-gs.180.31.14-20171015-clean.vasp	-1112.2585
PtNiS-Pt194Ni31-gs.180.31.14-20171015.vasp		-1256.2592
PtNiS-Pt194Ni31-gs.182.31.12-20171025-clean.vasp	-1113.4006
PtNiS-Pt194Ni31-gs.182.31.12-20171025.vasp		-1235.6036
PtNiS-Pt194Ni31-gs.182.31.12-20171106-clean.vasp	-1112.7701
PtNiS-Pt194Ni31-gs.182.31.12-20171106.vasp		-1235.8038
PtNiS-Pt194Ni31-gs.186.31.8-20171206.vasp		-1195.2698
PtNiS-Pt194Ni31-gs.186.31.8-20171206-clean.vasp		-1112.8616
PtNiS-Pt194Ni31-gs.188.31.6-20171106-clean.vasp		-1112.8306
PtNiS-Pt194Ni31-gs.188.31.6-20171106.vasp		-1174.5828
PtNiS-Pt194Ni31-gs.188.31.6-20171110-clean.vasp		-1112.7094
PtNiS-Pt194Ni31-gs.188.31.6-20171110.vasp		-1174.7055
random.109.0.28.119.1901.vasp	-699.374
random.137.0.32.124.1892.vasp	-744.15106
random.38.0.19.133.1896.vasp	-729.50761
random.42.0.19.97.1932.vasp	-548.62709
random.70.0.35.94.1919.vasp	-605.63619
#PtNiOH-NiPtOH-gs-runs
maxOHML=0.1-groundState.112.35-repPtWithS.3.vasp -.73812101E+03
maxOHML=0.15-groundState.112.35-repPtWithS.10.vasp -.80774062E+03
maxOHML=0.1-groundState.118.29-repPtWithS.5.vasp -.75794453E+03
maxOHML=0.15-groundState.118.29-repPtWithS.6.vasp -.76766855E+03
maxOHML=0.1-groundState.124.23-repPtWithS.2.vasp -.72673288E+03
maxOHML=0.15-groundState.124.23-repPtWithS.3.vasp -.73769898E+03
maxOHML=0.1-groundState.128.43-repPtWithS.2.vasp -.83464222E+03
maxOHML=0.15-groundState.128.43-repPtWithS.14.vasp -.95590062E+03
maxOHML=0.1-groundState.178.47-20150609-repPtWithS.9.vasp -.12005153E+04
maxOHML=0.15-groundState.178.47-20150609-repPtWithS.10.vasp -.12106948E+04
maxOHML=0.1-groundState.178.47-20150614-repPtWithS.12.vasp -.12269399E+04
maxOHML=0.15-groundState.178.47-20150614-repPtWithS.9.vasp -.11981869E+04
maxOHML=0.1-groundState.184.47-20150614-repPtWithS.6.vasp -.12021098E+04
maxOHML=0.15-groundState.184.47-20150614-repPtWithS.14.vasp -.12793253E+04
maxOHML=0.1-gs.176.225.6.41.178.noMo-repPtWithS.10.vasp -.12073975E+04
maxOHML=0.15-gs.176.225.6.41.178.noMo-repPtWithS.20.vasp -.13037366E+04
#PtNiOH-rand-maxOHML=0.2
maxOHML=0.2-random.12.66.65.1917-repPtWithS.7.vasp -.68401575E+03
maxOHML=0.2-random.18.51.64.1933-repPtWithS.5.vasp -.57599767E+03
maxOHML=0.2-random.20.67.93.1888-repPtWithS.7.vasp -.81312048E+03
maxOHML=0.2-random.23.94.79.1875-repPtWithS.4.vasp -.86107245E+03
maxOHML=0.2-random.6.75.29.1944-repPtWithS.6.vasp -.55088194E+03
#new added @20171028
maxOHML=0.2-random.104.90.41.1917-repPtWithS.13.vasp -.75162723E+03
maxOHML=0.2-random.107.97.62.1889-repPtWithS.4.vasp -.79890106E+03
maxOHML=0.2-random.33.61.39.1948-repPtWithS.4.vasp -.50432992E+03
maxOHML=0.2-random.34.93.42.1913-repPtWithS.13.vasp -.77124834E+03
maxOHML=0.2-random.37.56.44.1948-repPtWithS.5.vasp -.51543329E+03
maxOHML=0.2-random.42.96.63.1889-repPtWithS.4.vasp -.79825123E+03
maxOHML=0.2-random.63.70.52.1926-repPtWithS.6.vasp -.62501776E+03
maxOHML=0.2-random.66.78.71.1899-repPtWithS.12.vasp -.82194586E+03
maxOHML=0.2-random.75.92.40.1916-repPtWithS.8.vasp -.70785745E+03
maxOHML=0.2-random.76.85.82.1881-repPtWithS.8.vasp -.86982599E+03
maxOHML=0.2-random.77.50.62.1936-repPtWithS.6.vasp -.57607989E+03
maxOHML=0.2-random.80.67.46.1935-repPtWithS.9.vasp -.61742058E+03
maxOHML=0.2-random.91.48.74.1926-repPtWithS.7.vasp -.62980394E+03
#new added@20171205
maxOHML=0.2-random.112.59.65.1924-repPtWithS.4.vasp -.61639103E+03
maxOHML=0.2-random.116.92.91.1865-repPtWithS.6.vasp -.92709748E+03
maxOHML=0.2-random.134.77.93.1878-repPtWithS.4.vasp -.84089866E+03
maxOHML=0.2-random.147.76.94.1878-repPtWithS.10.vasp -.89801619E+03
maxOHML=0.2-random.150.78.41.1929-repPtWithS.4.vasp -.60364588E+03
maxOHML=0.2-random.158.84.50.1914-repPtWithS.10.vasp -.73342697E+03
maxOHML=0.2-random.164.74.56.1918-repPtWithS.4.vasp -.65188273E+03
maxOHML=0.2-random.182.85.76.1887-repPtWithS.10.vasp -.86032984E+03
maxOHML=0.2-random.189.68.41.1939-repPtWithS.4.vasp -.55047131E+03
maxOHML=0.2-random.190.49.91.1908-repPtWithS.4.vasp -.68359704E+03
maxOHML=0.2-random.193.66.42.1940-repPtWithS.6.vasp -.56575903E+03
maxOHML=0.2-random.194.44.67.1937-repPtWithS.4.vasp -.54966522E+03
maxOHML=0.2-random.195.73.90.1885-repPtWithS.4.vasp -.80086688E+03
maxOHML=0.2-random.196.72.38.1938-repPtWithS.6.vasp -.57216738E+03
#PtNiOH-rand-maxOHML=0.4
maxOHML=0.4-random.12.66.65.1917-repPtWithS.5.vasp -.66385717E+03
maxOHML=0.4-random.18.51.64.1933-repPtWithS.16.vasp -.68860393E+03
maxOHML=0.4-random.20.67.93.1888-repPtWithS.11.vasp -.85336478E+03
maxOHML=0.4-random.22.54.91.1903-repPtWithS.12.vasp -.78931381E+03
maxOHML=0.4-random.23.94.79.1875-repPtWithS.26.vasp -.10809027E+04
maxOHML=0.4-random.33.61.39.1948-repPtWithS.14.vasp -.60598198E+03
maxOHML=0.4-random.34.93.42.1913-repPtWithS.4.vasp -.68294537E+03
maxOHML=0.4-random.37.56.44.1948-repPtWithS.7.vasp -.53573725E+03
maxOHML=0.4-random.42.96.63.1889-repPtWithS.8.vasp -.83816121E+03
maxOHML=0.4-random.4.83.24.1941-repPtWithS.19.vasp -.69630011E+03
maxOHML=0.4-random.66.78.71.1899-repPtWithS.18.vasp -.88232650E+03
#new added@20171028
maxOHML=0.4-random.104.90.41.1917-repPtWithS.11.vasp -.73307349E+03
maxOHML=0.4-random.107.97.62.1889-repPtWithS.9.vasp -.84808843E+03
maxOHML=0.4-random.112.59.65.1924-repPtWithS.4.vasp -.61630713E+03
maxOHML=0.4-random.116.92.91.1865-repPtWithS.5.vasp -.91780965E+03
maxOHML=0.4-random.134.77.93.1878-repPtWithS.5.vasp -.85099548E+03
maxOHML=0.4-random.147.76.94.1878-repPtWithS.4.vasp -.83734626E+03
maxOHML=0.4-random.150.78.41.1929-repPtWithS.13.vasp -.69221620E+03
maxOHML=0.4-random.158.84.50.1914-repPtWithS.4.vasp -.67294885E+03
maxOHML=0.4-random.182.85.76.1887-repPtWithS.11.vasp -.87032954E+03
maxOHML=0.4-random.189.68.41.1939-repPtWithS.4.vasp -.55104767E+03
maxOHML=0.4-random.194.44.67.1937-repPtWithS.13.vasp -.64003860E+03
maxOHML=0.4-random.196.72.38.1938-repPtWithS.16.vasp -.67335646E+03
maxOHML=0.4-random.76.85.82.1881-repPtWithS.15.vasp -.94100978E+03
maxOHML=0.4-random.80.67.46.1935-repPtWithS.22.vasp -.74902455E+03
#PtNi-rand-clean
random.101.35.85.1928.vasp -.54101397E+03
random.104.90.41.1917.vasp -.62228834E+03
random.107.97.62.1889.vasp -.75886090E+03
random.112.59.65.1924.vasp -.57591956E+03
random.116.92.91.1865.vasp -.86680565E+03
random.118.41.83.1924.vasp -.56506333E+03
random.126.30.71.1947.vasp -.45559191E+03
random.12.66.65.1917.vasp -.61365715E+03
random.134.77.93.1878.vasp -.80017265E+03
random.13.48.80.1920.vasp -.58979734E+03
random.137.89.22.1937.vasp -.52903826E+03
random.145.88.40.1920.vasp -.60446354E+03
random.147.76.94.1878.vasp -.79702131E+03
random.148.38.78.1932.vasp -.52797880E+03
random.150.78.41.1929.vasp -.56308122E+03
random.158.84.50.1914.vasp -.63298911E+03
random.164.74.56.1918.vasp -.61140244E+03
random.166.26.78.1944.vasp -.46411662E+03
random.169.38.92.1918.vasp -.59378989E+03
random.176.19.82.1947.vasp -.44550011E+03
random.177.29.87.1932.vasp -.52239893E+03
random.182.85.76.1887.vasp -.75948534E+03
random.18.51.64.1933.vasp -.52550688E+03
random.189.68.41.1939.vasp -.51093540E+03
random.190.49.91.1908.vasp -.64289840E+03
random.193.66.42.1940.vasp -.50663974E+03
random.194.44.67.1937.vasp -.50848372E+03
random.195.73.90.1885.vasp -.76054877E+03
random.196.72.38.1938.vasp -.51207594E+03
random.197.31.83.1934.vasp -.51376341E+03
random.20.67.93.1888.vasp -.74213014E+03
random.22.54.91.1903.vasp -.66820022E+03
random.23.94.79.1875.vasp -.82145884E+03
random.33.61.39.1948.vasp -.46363333E+03
random.34.93.42.1913.vasp -.64250306E+03
random.37.56.44.1948.vasp -.46512330E+03
random.42.96.63.1889.vasp -.75852245E+03
random.44.30.89.1929.vasp -.53680843E+03
random.4.83.24.1941.vasp -.50762670E+03
random.53.29.91.1928.vasp -.54167030E+03
random.59.87.31.1930.vasp -.56115327E+03
random.63.70.52.1926.vasp -.56338334E+03
random.64.27.90.1931.vasp -.52383047E+03
random.65.27.91.1930.vasp -.52842307E+03
random.66.78.71.1899.vasp -.70123381E+03
random.6.75.29.1944.vasp -.49154406E+03
random.70.29.89.1930.vasp -.53082305E+03
random.75.92.40.1916.vasp -.62799933E+03
random.76.85.82.1881.vasp -.79103338E+03
random.77.50.62.1936.vasp -.51549217E+03
random.80.67.46.1935.vasp -.52773149E+03
random.82.83.56.1909.vasp -.65383746E+03
random.91.48.74.1926.vasp -.55746154E+03
random.93.47.95.1906.vasp -.65312118E+03